      <div id="menubar">
        <ul id="menu">
          <!-- put class="selected" in the li tag for the selected page - to highlight which page you're on -->
          <li><a href="index.html">Home</a></li>
          <li class="selected"><a href="page1.html">開催概要</a></li>
          <li><a href="page2.html">内容</a></li>
          <li><a href="page3.html">申し込み</a></li>
          <li><a href="page4.html">アクセス</a></li>
          <li><a href="page5.html">お問い合わせ</a></li>
        </ul>
      </div>