﻿<font size="+1">
<section>
	<h2>開催概要</h2>
	<p>現在、さまざまなところで水素自動車の普及が進んでいます。水素社会の実現には、車の技術の向上はもちろんのこと、水素ステーションの普及といった周囲の環境の整備も重要になってきます。そこで、資源エネルギー庁、NEDOの方々をお呼びし、水素社会の実現性について、インフラ整備や政策の観点から迫っていきます。
</p>
	<b>日時</b>：	2015年11月5日(木)	17時00分～19時30分(予定)
	<br>
	<br>		16:30		開場
	<br>		17:00		開会
	<br>		17:10～17:40	資源エネルギー庁様のご講演	
	<br>		17:40～18:10	NEDO様のご講演
	<br>		18:10～18:20	休憩
	<br>		18:20～19:20	ディスカッション
	<br>		19:30		閉会


	
</section>
</font>