この度は、シンポジウム「Birthday 〜美の原点〜」にご予約いただき、誠にありがとうございます。
以下の内容でご予約を承りました。

────────────────────────────
▼予約内容
────────────────────────────

$message

────────────────────────────
予約日時 : $date
────────────────────────────

当日は、本メールを印刷していただき、ご持参ください。

なお、開催概要は以下の通りです
────────────────────────────
▼開催概要
────────────────────────────
シンポジウム「Birthday〜美の原点〜」
日時 : 平成21年(2009年)12月11日(金)
　　　　　17:00 開演　(16:30　開場)
場所 : 東京工業大学　大岡山キャンパス　
　　　　ディジタル多目的ホール(大岡山西9号館2階)
　　　　　　東急目黒線・大井町線　大岡山駅より徒歩5分
パネリスト(敬称略):矢島　床子  (矢島助産院　助産師)
　　　　　　 　　　石井　勢津子(美術家(ホログラフィアート))
　　　　　　 　　　土井　美和子(首席技監(株式会社東芝))

詳しい場所、プログラムなどは、ホームページをご覧ください。
http://www.risuu.cradle.titech.ac.jp/sympo09/

それでは、当日会場でお待ちいたします。

─────────────────────────
東京工業大学　教育工学開発センター内
理工系学生能力発見・開発プロジェクト事務局
TEL：03（5734）3230
ホームページ:
http://www.risuu.cradle.titech.ac.jp/sympo09/
Eメールアドレス:
matsuzaki.t.ab-sympo@m.titech.ac.jp
─────────────────────────
※なお、このメールは自動送信でお送りしております。
